…
  # Interpolate: Ordinary kriging (data for 2022)
  geocoded_sf_skell_22 <- geocoded_sf_skell[which(lubridate::year(geocoded_sf_skell$sold_date) %in% c(2022)),]
  kriging_result_skell_22 <- autoKrige(sek_sqm_calc_m~1, geocoded_sf_skell_22, grd_template_sf_skell)
```

    ## Simple feature collection with 2750 features and 11 fields
    ## Geometry type: POINT
    ## Dimension:     XY
    ## Bounding box:  xmin: 20.38282 ymin: 64.36278 xmax: 21.36977 ymax: 65.02733
    ## Geodetic CRS:  WGS 84
    ## # A tibble: 2,750 × 12
    ##    place_id  address          type  size_sqm room_n sold_date  price_sek sek_sqm
    ##    <chr>     <chr>            <chr> <chr>    <chr>  <date>         <dbl>   <dbl>
    ##  1 113295194 Norrbölegatan, … Läge… 55       3      2022-05-18   2000000   22715
    ##  2 110692651 Norrbölegatan, … Läge… 55       3      2022-08-26   1800000   25000
    ##  3 110692651 Norrbölegatan, … Läge… 55       3      2022-05-18   2000000   22715
    ##  4 110692651 Norrbölegatan, … Läge… 50       2      2022-09-07   1200000   30492
    ##  5 113295194 Norrbölegatan, … Läge… 50       2      2022-09-07   1200000   30492
    ##  6 110692651 Norrbölegatan, … Läge… 72,5     3      2022-05-18   2400000   30172
    ##  7 110692651 Norrbölegatan, … Läge… 70       3      2022-05-10   2035000   30238
    ##  8 110692651 Norrbölegatan, … Läge… 50       2      2022-02-24   1600000   22213
    ##  9 110692651 Norrbölegatan, … Villa 50       2      2022-02-24   1600000   21311
    ## 10 113295194 Norrbölegatan, … Läge… 50       2      2022-02-24   1600000   22213
    ## # ℹ 2,740 more rows
    ## # ℹ 4 more variables: sek_sqm_calc <dbl>, pricechng_per <chr>,
    ## #   geometry <POINT [°]>, sek_sqm_calc_m <dbl>
    ## [using ordinary kriging]
…
  # Interpolate: Ordinary kriging (data for 2023)
  geocoded_sf_skell_23 <- geocoded_sf_skell[which(lubridate::year(geocoded_sf_skell$sold_date) %in% c(2023)),]
  kriging_result_skell_23 <- autoKrige(sek_sqm_calc_m~1, geocoded_sf_skell_23, grd_template_sf_skell)
```

    ## Simple feature collection with 515 features and 11 fields
    ## Geometry type: POINT
    ## Dimension:     XY
    ## Bounding box:  xmin: 20.37667 ymin: 64.39914 xmax: 21.25238 ymax: 64.94785
    ## Geodetic CRS:  WGS 84
    ## # A tibble: 515 × 12
    ##    place_id  address          type  size_sqm room_n sold_date  price_sek sek_sqm
    ##    <chr>     <chr>            <chr> <chr>    <chr>  <date>         <dbl>   <dbl>
    ##  1 112995759 Sunnanågatan, S… Villa 77+31    3      2023-07-06   2110000    3364
    ##  2 110278127 Sunnanågatan, S… Villa 77+31    3      2023-07-06   2110000   25581
    ##  3 110278127 Sunnanågatan, S… Villa 77+31    3      2023-07-06   2110000    3364
    ##  4 110278127 Sunnanågatan, S… Villa 77+31    3      2023-07-06   2110000   25581
    ##  5 110278127 Sunnanågatan, S… Villa 77+31    3      2023-07-06   2110000    3364
    ##  6 136571619 Tallvägen, Skel… Läge… 76+76    4      2023-07-06   1430000   19535
    ##  7 134015169 Tallvägen, Skel… Villa 76+76    4      2023-07-06   1430000   18902
    ##  8 134015169 Tallvägen, Skel… Läge… 76+76    4      2023-07-06   1430000   19535
    ##  9 134015169 Tallvägen, Skel… Villa 70+70    3      2023-01-24   1350000   17143
    ## 10 134015169 Tallvägen, Skel… Villa 76+76    4      2023-07-06   1430000   18902
    ## # ℹ 505 more rows
    ## # ℹ 4 more variables: sek_sqm_calc <dbl>, pricechng_per <chr>,
    ## #   geometry <POINT [°]>, sek_sqm_calc_m <dbl>
    ## [using ordinary kriging]
…
